…
brfss_clean
```

    ## # A tibble: 10,625 x 23
    ##     year state county class topic question response sample_size data_value
    ##    <int> <chr> <chr>  <chr> <chr> <chr>    <fct>          <int>      <dbl>
    ##  1  2010 AL    AL - ~ Heal~ Over~ How is ~ Poor              45        5.5
    ##  2  2010 AL    AL - ~ Heal~ Over~ How is ~ Poor              66        6.4
    ##  3  2010 AL    AL - ~ Heal~ Over~ How is ~ Poor              35        4.2
    ##  4  2010 AZ    AZ - ~ Heal~ Over~ How is ~ Poor              62        3.5
    ##  5  2010 AZ    AZ - ~ Heal~ Over~ How is ~ Poor              49        5.7
    ##  6  2010 AZ    AZ - ~ Heal~ Over~ How is ~ Poor              30        4  
    ##  7  2010 AR    AR - ~ Heal~ Over~ How is ~ Poor              21        3  
    ##  8  2010 AR    AR - ~ Heal~ Over~ How is ~ Poor              36        3.8
    ##  9  2010 AR    AR - ~ Heal~ Over~ How is ~ Poor              16        2.4
    ## 10  2010 CA    CA - ~ Heal~ Over~ How is ~ Poor              23        2.4
    ## # ... with 10,615 more rows, and 14 more variables:
    ## #   confidence_limit_low <dbl>, confidence_limit_high <dbl>,
    ## #   display_order <int>, data_value_unit <chr>, data_value_type <chr>,
    ## #   data_value_footnote_symbol <chr>, data_value_footnote <chr>,
    ## #   data_source <chr>, class_id <chr>, topic_id <chr>, location_id <chr>,
    ## #   question_id <chr>, respid <chr>, geo_location <chr>
…
